<svg width="28" height="26" viewBox="0 0 28 26" fill="none" xmlns="http://www.w3.org/2000/svg">
<path d="M0.988803 26H27.0112C27.5659 26 28 25.5638 28 25.0065V2.83504C28 2.27773 27.5659 1.84157 27.0112 1.84157H22.1154V0.993476C22.1154 0.43616 21.6813 0 21.1266 0C20.5719 0 20.1378 0.43616 20.1378 0.993476V1.84157H8.03101V0.993476C8.03101 0.43616 7.5969 0 7.0422 0C6.48751 0 6.0534 0.43616 6.0534 0.993476V1.84157H0.988803C0.434109 1.84157 0 2.27773 0 2.83504V25.0308C0 25.5638 0.458226 26 0.988803 26ZM1.97761 3.82852H6.0534V4.3616C6.0534 4.91892 6.48751 5.35508 7.0422 5.35508C7.5969 5.35508 8.03101 4.91892 8.03101 4.3616V3.82852H20.1378V4.3616C20.1378 4.91892 20.5719 5.35508 21.1266 5.35508C21.6813 5.35508 22.1154 4.91892 22.1154 4.3616V3.82852H26.0465V6.39702H1.97761V3.82852ZM1.97761 8.38397H26.0224V24.0373H1.97761V8.38397Z" fill="#103677"/>
<path d="M15.2179 0H0.988803C0.434109 0 0 0.436162 0 0.993478C0 1.55079 0.434109 1.98695 0.988803 1.98695H15.2179C15.7726 1.98695 16.2067 1.55079 16.2067 0.993478C16.2067 0.436162 15.7726 0 15.2179 0Z" transform="translate(5.90869 12.9395)" fill="#103677"/>
<path d="M8.10336 0H0.988803C0.434109 0 0 0.43616 0 0.993476C0 1.55079 0.434109 1.98695 0.988803 1.98695H8.10336C8.65805 1.98695 9.09216 1.55079 9.09216 0.993476C9.09216 0.43616 8.65805 0 8.10336 0Z" transform="translate(5.90869 17.7371)" fill="#103677"/>
</svg>
