<svg width="16" height="16" viewBox="0 0 16 16" fill="none" xmlns="http://www.w3.org/2000/svg">
<path fill-rule="evenodd" clip-rule="evenodd" d="M8 16C12.4182 16 16 12.4183 16 8C16 3.58173 12.4182 0 8 0C3.58179 0 0 3.58173 0 8C0 12.4183 3.58179 16 8 16ZM8.51831 8.56V9.39478H7.12012V7.85046C7.5791 7.75653 7.98608 7.60004 8.35132 7.36005C8.71655 7.12 8.89404 6.85913 8.89404 6.55652C8.89404 6.00348 8.39307 5.72174 7.69409 5.72174C7.09912 5.72174 6.47314 5.92004 5.82617 6.30609V4.99133C6.4209 4.58435 7.12012 4.37567 7.93408 4.37567C8.6123 4.37567 9.19653 4.56348 9.67651 4.93915C10.167 5.30438 10.407 5.81567 10.407 6.46265C10.407 6.97394 10.2192 7.41217 9.84351 7.7774C9.46802 8.14264 9.02954 8.4035 8.51831 8.56ZM8.7583 11.0226C8.7583 11.5339 8.35132 11.9409 7.85059 11.9409C7.33911 11.9409 6.94263 11.5339 6.94263 11.0226C6.94263 10.5217 7.33911 10.1252 7.85059 10.1252C8.35132 10.1252 8.7583 10.5217 8.7583 11.0226Z" fill="#4AB2DB"/>
</svg>
