<svg width="124" height="81" viewBox="0 0 124 81" fill="none" xmlns="http://www.w3.org/2000/svg">
<path d="M7.62939e-08 0H17.66C17.66 0.05 17.66 0.0999998 17.66 0.16C17.6442 4.81671 15.7866 9.27803 12.4928 12.5699C9.1991 15.8618 4.73672 17.7168 0.08 17.73H0.0100003L7.62939e-08 0ZM20 29.14C14.1423 33.1765 7.19375 35.3322 0.08 35.32H0.0100003V60H20.01L20 29.14Z" transform="translate(0.0800781 0.356781)" fill="#4AB2DB"/>
<path d="M6.18 0V0.16C6.17601 7.24647 4.02101 14.1648 0 20H10.93V60H30.93V0H6.18Z" transform="translate(29.1602 0.356781)" fill="#C24D43"/>
<path d="M5.34058e-07 6V-3.66211e-06H2C4 -3.66211e-06 4.62 0.999996 4.62 2C4.60155 2.2909 4.52414 2.57502 4.39248 2.83508C4.26081 3.09514 4.07764 3.3257 3.8541 3.51277C3.63055 3.69983 3.3713 3.83949 3.09211 3.92325C2.81291 4.00701 2.5196 4.03312 2.23 4C1.99018 4.0132 1.74982 4.0132 1.51 4V6H5.34058e-07ZM1.48 1.29V2.66C1.70308 2.67498 1.92692 2.67498 2.15 2.66C2.54 2.66 3.02 2.51 3.02 1.93C3.02 1.35 2.65 1.24 2.12 1.24L1.48 1.29Z" transform="translate(0.849609 74.6968)" fill="black"/>
<path d="M3.43 0.0107431C5.43 0.0107431 6.87 1.20074 6.87 3.10074C6.862 3.53484 6.7649 3.96267 6.58474 4.3577C6.40459 4.75273 6.1452 5.10653 5.82267 5.39719C5.50014 5.68784 5.12134 5.90914 4.70976 6.04736C4.29818 6.18559 3.86259 6.2378 3.43 6.20075C2.99667 6.24402 2.55908 6.19609 2.14539 6.06005C1.7317 5.92402 1.35107 5.70289 1.02798 5.41089C0.704901 5.11889 0.446524 4.7625 0.269477 4.36462C0.0924306 3.96675 0.000635905 3.53622 -6.86645e-07 3.10074C0.009447 2.66841 0.10725 2.24258 0.287391 1.84946C0.467532 1.45633 0.726201 1.10422 1.04749 0.814782C1.36877 0.525344 1.74588 0.304703 2.15561 0.166429C2.56534 0.0281545 2.99903 -0.0248279 3.43 0.0107431ZM3.43 4.92075C3.67645 4.94114 3.92441 4.90845 4.15717 4.8249C4.38992 4.74135 4.60205 4.60887 4.77927 4.43639C4.95648 4.26392 5.09466 4.05545 5.18449 3.82504C5.27432 3.59464 5.31371 3.34765 5.3 3.10074C5.30443 2.8567 5.25862 2.61437 5.16542 2.38879C5.07223 2.16321 4.93363 1.9592 4.75826 1.78945C4.58288 1.6197 4.37447 1.48783 4.14597 1.40204C3.91746 1.31625 3.67376 1.27836 3.43 1.29074C3.18311 1.27092 2.93481 1.30343 2.70134 1.38615C2.46788 1.46887 2.2545 1.59993 2.07516 1.77078C1.89582 1.94162 1.75456 2.14839 1.66062 2.37757C1.56668 2.60675 1.52217 2.85318 1.53 3.10074C1.52976 3.34663 1.57935 3.59002 1.67578 3.81622C1.7722 4.04241 1.91346 4.24672 2.09103 4.41681C2.2686 4.5869 2.47879 4.71924 2.70892 4.80586C2.93905 4.89247 3.18435 4.93156 3.43 4.92075Z" transform="translate(6.62988 74.596)" fill="black"/>
<path d="M5.48214 5.52317C4.8907 6.0034 4.14314 6.24903 3.38214 6.21317C2.95149 6.25535 2.51679 6.2063 2.10636 6.06924C1.69593 5.93219 1.31899 5.71019 1.0001 5.41771C0.681206 5.12523 0.427519 4.76885 0.255569 4.37177C0.083619 3.9747 -0.00273399 3.54585 0.00213597 3.11317C-0.0142709 2.67855 0.0640185 2.24557 0.231579 1.84422C0.399139 1.44286 0.651963 1.08274 0.97253 0.788811C1.2931 0.494878 1.67374 0.274157 2.08809 0.141953C2.50243 0.00974789 2.94057 -0.0307798 3.37213 0.0231706C4.09163 -0.0170764 4.80157 0.203008 5.37213 0.643173L4.72214 1.64317C4.32723 1.39466 3.86867 1.26612 3.40213 1.27317C3.16025 1.25694 2.91769 1.29263 2.69073 1.37785C2.46377 1.46307 2.25766 1.59585 2.08624 1.76727C1.91481 1.9387 1.78204 2.14481 1.69682 2.37177C1.6116 2.59872 1.57591 2.84128 1.59214 3.08317C1.58931 3.33857 1.64057 3.59168 1.74255 3.82585C1.84453 4.06003 1.99492 4.26996 2.18382 4.44186C2.37273 4.61377 2.59588 4.74375 2.8386 4.82326C3.08133 4.90276 3.33813 4.93 3.59214 4.90317C4.0925 4.90109 4.58054 4.74772 4.99213 4.46317L5.48214 5.52317Z" transform="translate(14.6777 74.5836)" fill="black"/>
<path d="M3.74 1.29H1.5V6H0V-3.66211e-06H5.21V6H3.74V1.29Z" transform="translate(21.6602 74.6968)" fill="black"/>
<path d="M1.83105e-06 6V-3.66211e-06H2C4 -3.66211e-06 4.62 0.999996 4.62 2C4.60155 2.2909 4.52414 2.57502 4.39248 2.83508C4.26081 3.09514 4.07764 3.3257 3.8541 3.51277C3.63055 3.69983 3.3713 3.83949 3.09211 3.92325C2.81291 4.00701 2.5196 4.03312 2.23 4C1.99018 4.0132 1.74982 4.0132 1.51 4V6H1.83105e-06ZM1.48 1.29V2.66C1.70973 2.67589 1.94027 2.67589 2.17 2.66C2.56 2.66 3.04 2.51 3.04 1.93C3.04 1.35 2.67 1.24 2.14 1.24L1.48 1.29Z" transform="translate(28.9902 74.6968)" fill="black"/>
<path d="M-3.05176e-07 -1.52588e-06H3.83V1.28H1.48V2.34H3.56V3.65H1.48V4.74H3.93V6.02H-3.05176e-07V-1.52588e-06Z" transform="translate(35.2305 74.7068)" fill="black"/>
<path d="M-1.52588e-06 4.71H0.690001C1.30996 3.64443 1.63444 2.43279 1.63 1.2L1.68 -1.52588e-06H5.9V4.71H6.77V5.99H-1.52588e-06V4.71ZM2.32 4.71H4.42V1.28H3.11L3.01 2.28C2.94807 3.12857 2.71326 3.95551 2.32 4.71Z" transform="translate(40.2598 74.7068)" fill="black"/>
<path d="M3.73 1.29H1.47V6H-1.52588e-06V-3.66211e-06H5.21V6H3.73V1.29Z" transform="translate(48.5098 74.6968)" fill="black"/>
<path d="M3.05176e-07 6V-3.66211e-06H2C4 -3.66211e-06 4.61 0.999996 4.61 2C4.59286 2.29046 4.51666 2.57438 4.38607 2.8344C4.25548 3.09442 4.07323 3.32506 3.85047 3.51226C3.62771 3.69945 3.36911 3.83925 3.09049 3.92312C2.81187 4.00698 2.51908 4.03313 2.23 4C1.99019 4.0132 1.74982 4.0132 1.51 4V6H3.05176e-07ZM1.48 1.29V2.66C1.70309 2.67498 1.92692 2.67498 2.15 2.66C2.54 2.66 3.02 2.51 3.02 1.93C3.02 1.35 2.65 1.24 2.12 1.24L1.48 1.29Z" transform="translate(55.8398 74.6968)" fill="black"/>
<path d="M-1.83105e-06 6V-3.66211e-06H1.48V3.72L4.34 -3.66211e-06H5.63V6H4.16V2.28L1.29 6H-1.83105e-06Z" transform="translate(62.0801 74.6968)" fill="black"/>
<path d="M3.83 3.59H1.48V6H-1.83105e-06V-3.66211e-06H1.48V2.29H3.83V0.00999847H5.33V6.01H3.83V3.59Z" transform="translate(69.8301 74.6968)" fill="black"/>
<path d="M-1.52588e-06 6V-3.66211e-06H1.47V3.72L4.33 -3.66211e-06H5.62V6H4.15V2.28L1.29 6H-1.52588e-06Z" transform="translate(77.2598 74.6968)" fill="black"/>
<path d="M-1.52588e-06 -1.52588e-06H1.48L3.48 2.52L5.36 -1.52588e-06H6.76V6H5.28V2.17L3.48 4.51H3.27L1.48 2.2V5.99H0.0100006L-1.52588e-06 -1.52588e-06Z" transform="translate(85.0098 74.7068)" fill="black"/>
<path d="M2.68 -1.52588e-06H4L6.68 6H5.11L4.57 4.74H2.02L1.48 6H-6.10352e-07L2.68 -1.52588e-06ZM2.57 3.45H4.02L3.3 1.75L2.57 3.45Z" transform="translate(93.0498 74.7068)" fill="black"/>
<path d="M0.0399973 -1.52588e-06H5.41V1.28H3.41V5.99H1.94V1.28H-3.66211e-06L0.0399973 -1.52588e-06Z" transform="translate(99.75 74.7068)" fill="black"/>
<path d="M6.10352e-07 -1.52588e-06H3.83V1.28H1.48V2.34H3.55V3.65H1.48V4.74H3.92V6.02H6.10352e-07V-1.52588e-06Z" transform="translate(106.521 74.7068)" fill="black"/>
<path d="M4.27 1.28H2.85L2.71 2.41C2.33 5.57 1.51 6.22 -4.27246e-06 5.99V4.62C0.529996 4.71 1.09 4.52 1.35 1.2L1.44 -1.52588e-06H5.72V6H4.24L4.27 1.28Z" transform="translate(111.64 74.7068)" fill="black"/>
<path d="M1.48 1.85H2.04999C3.71999 1.85 4.49 2.65 4.49 3.85C4.49 5.05 3.49 6 1.73 6H6.10352e-06V2.74658e-06H1.48V1.85ZM1.48 3.14V4.63H1.90999C2.50999 4.63 2.90999 4.41 2.90999 3.8C2.90999 3.19 2.44999 3.03 1.90999 3.03C1.79999 3.1 1.65 3.12 1.48 3.14Z" transform="translate(119.51 74.7268)" fill="black"/>
</svg>
